[
    {
        "ID": 324,
        "post_author": "1",
        "post_name": "name",
        "post_content": "",
        "post_title": "Name",
        "menu_order": 0,
        "type": "text",
        "required": "1",
        "pick_object": "",
        "pick_val": "",
        "column":true
    },
    {
        "ID": 325,
        "post_author": "1",
        "post_name": "created",
        "post_content": "",
        "post_title": "Date Created",
        "menu_order": 1,
        "type": "datetime",
        "required": "0",
        "pick_object": "",
        "pick_val": ""
    },
    {
        "ID": 326,
        "post_author": "1",
        "post_name": "modified",
        "post_content": "",
        "post_title": "Date Modified",
        "menu_order": 2,
        "type": "datetime",
        "required": "0",
        "pick_object": "",
        "pick_val": "",
        "column":true
    },
    {
        "ID": 327,
        "post_author": "1",
        "post_name": "author",
        "post_content": "",
        "post_title": "Author",
        "menu_order": 3,
        "type": "pick",
        "required": "0",
        "pick_object": "user",
        "pick_val": ""
    },
    {
        "ID": 328,
        "post_author": "1",
        "post_name": "permalink",
        "post_content": "Leave blank to auto-generate from Name",
        "post_title": "Permalink",
        "menu_order": 4,
        "type": "slug",
        "required": "0",
        "pick_object": "",
        "pick_val": ""
    }
]